"ID","ITEM","STATUS","ORDNUMBER","SALEORDER_ITME_CODE","PRODUCTCODE","QUANTITY","PRODUCTDESC","DISCOUNTAMOUNT","UNITPRICEINCDIS","TOTALAMOUNT","STOCKAVA","COMMITQTY","BALQTY","BOQTY","POQTY","SHIPSTOKOUT","INVSTOKOUT","STOCKOUTDATE","STATUS"
"a0M90000005b9AHEAY","32","Item Created","SA1310072","SA131007232","P013-2200-16050-015","0.0","Power/Telco Module SoundStation2","0.0","0.0","7500.000","0.0","0.0","0.0","0.0","0.0","0.0","0.0","2013-09-18T07:00:00Z","Item Created"
"a0M90000005b9AIEAY","32","Item Created","SA1310073","SA131007332","PCA1-ONSITE-A1","0.0","Corrective / On Site Service per call, Area 1","0.0","0.0","5000.000","0.0","0.0","0.0","0.0","0.0","0.0","0.0","2013-09-18T07:00:00Z","Item Created"
"a0M90000005b9AJEAY","16","Item Created","SA1310074","SA131007416","C007-PHD-USB","0.0","VCS, PrecisionHD USB","0.0","0.0","25000.000","0.0","0.0","0.0","0.0","0.0","0.0","0.0","2013-09-18T07:00:00Z","Item Created"
"a0M90000005b9AKEAY","128","Item Created","SA1310075","SA1310075128","PCA1-RENTAL","0.0","Rental Charge ... BGAN Terminal+1000 Units Charge","0.0","0.0","60000.000","0.0","0.0","0.0","0.0","0.0","0.0","0.0","2013-09-18T07:00:00Z","Item Created"
"a0M90000005b9ALEAY","32","Item Created","SA1310075","SA131007532","MISC-SERVICE","0.0","On-site Service ... (3) Days","0.0","0.0","112500.000","0.0","0.0","0.0","0.0","0.0","0.0","0.0","2013-09-18T07:00:00Z","Item Created"
"a0M90000005b9AMEAY","64","Item Created","SA1310075","SA131007564","MISC-SERVICE","0.0","Extra Charge_Additional Day 2 Days","0.0","0.0","64800.000","0.0","0.0","0.0","0.0","0.0","0.0","0.0","2013-09-18T07:00:00Z","Item Created"
"a0M90000005b9ANEAY","96","Item Created","SA1310075","SA131007596","PCA1-RENTAL","0.0","Rental Charge ... PTP-500Lite 1 pair .. 4 Oct - 18 Oct","0.0","0.0","100000.000","0.0","0.0","0.0","0.0","0.0","0.0","0.0","2013-09-18T07:00:00Z","Item Created"
"a0M90000005b9AOEAY","32","Item Created","SA1310076","SA131007632","P013-4870-00001-156","0.0","1 year Extended Warranty for VSX7000","0.0","0.0","33000.000","0.0","0.0","0.0","0.0","0.0","0.0","0.0","2013-09-18T07:00:00Z","Item Created"
"a0M90000005b9APEAY","64","Item Created","SA1310076","SA131007664","PCA1-SWAP-1YR","0.0","Service, 1-yr Swap Replacement","0.0","0.0","0.000","0.0","0.0","0.0","0.0","0.0","0.0","0.0","2013-09-18T07:00:00Z","Item Created"
"a0M90000005b9AQEAY","128","Item Created","SA1310077","SA1310077128","MISC-INSTALL","0.0","Installation materials for both YGN & ZPQ","0.0","0.0","3328.990","0.0","0.0","0.0","0.0","0.0","0.0","0.0","2013-09-18T07:00:00Z","Item Created"
"a0M90000005b9AREAY","32","Item Created","SA1310077","SA131007732","MISC-INSTALL","0.0","Install Equipments in YGN office","0.0","0.0","29911.010","0.0","0.0","0.0","0.0","0.0","0.0","0.0","2013-09-18T07:00:00Z","Item Created"
"a0M90000005b9ASEAY","64","Item Created","SA1310077","SA131007764","MISC-INSTALL","0.0","Install Equipments in YGN office","0.0","0.0","0.000","0.0","0.0","0.0","0.0","0.0","0.0","0.0","2013-09-18T07:00:00Z","Item Created"
"a0M90000005b9ATEAY","96","Item Created","SA1310077","SA131007796","MISC-INSTALL","0.0","Set up & configure the Link in ZPQ (OFF-SHORE)","0.0","0.0","0.000","0.0","0.0","0.0","0.0","0.0","0.0","0.0","2013-09-18T07:00:00Z","Item Created"
"a0M90000005b9AUEAY","32","Item Created","SA1310078","SA131007832","C026-910-159-001","0.0","ClearOne, CHAT 50 USB","0.0","0.0","0.000","0.0","0.0","0.0","0.0","0.0","0.0","0.0","2013-09-18T07:00:00Z","Item Created"
"a0M90000005b9AVEAY","32","Item Created","SA1310079","SA131007932","MISC-INSTALL","0.0","ค่าติดตั้งอุปกรณ์ PMP-450 AP จำนวน 5 ชุด","0.0","0.0","62500.000","0.0","0.0","0.0","0.0","0.0","0.0","0.0","2013-09-18T07:00:00Z","Item Created"
"a0M90000005b9AWEAY","32","Item Created","SA1310080","SA131008032","S039-SR-ME-MA","0.0","1 yr. Hardware & Software MA for SR-ME","0.0","0.0","21000.000","0.0","0.0","0.0","0.0","0.0","0.0","0.0","2013-09-18T07:00:00Z","Item Created"
"a0M90000005b9AXEAY","64","Item Created","SA1310080","SA131008064","PCA1-SWAP-1YR","0.0","Service, 1-yr Swap Replacement","0.0","0.0","9000.000","0.0","0.0","0.0","0.0","0.0","0.0","0.0","2013-09-18T07:00:00Z","Item Created"
"a0M90000005b9AYEAY","96","Item Created","SA1310080","SA131008096","PCA1-PM2-CM6-A1","0.0","PM 2 times & Corrective 6 times/year, Area 1","0.0","0.0","0.000","0.0","0.0","0.0","0.0","0.0","0.0","0.0","2013-09-18T07:00:00Z","Item Created"
"a0M90000005b9AZEAY","32","Item Created","SA1310081","SA131008132","PCA1-LLC50-78","0.0","Cable, Flexible 7/8""-50 Ohm","0.0","0.0","210000.000","0.0","0.0","0.0","0.0","0.0","0.0","0.0","2013-09-18T07:00:00Z","Item Created"
