time,level,message,logger
2013-10-03 12:25:32.2923,Info,New Faq Data,WebsiteToSf.Services.FaqService
2013-10-03 12:25:32.3823,Info,Data : f_cusname => อรุณทิพย์  f_cusemail => arunthip@toagroup.com f_des => อยากให้ออกแบบสีห้องนั่งเล่นให้ค่ะ,WebsiteToSf.Services.FaqService
2013-10-03 12:26:12.7526,Info,New Faq Data,WebsiteToSf.Services.FaqService
2013-10-03 12:26:12.7526,Info,Data : f_cusname => อรุณทิพย์  f_cusemail => arunthip@toagroup.com f_des => อยากให้ออกแบบสีห้องนั่งเล่นให้ค่ะ,WebsiteToSf.Services.FaqService
2013-10-03 12:26:17.6689,Info,New Faq Data,WebsiteToSf.Services.FaqService
2013-10-03 12:26:17.6689,Info,Data : f_cusname => อรุณทิพย์  f_cusemail => arunthip@toagroup.com f_des => อยากให้ออกแบบสีห้องนั่งเล่นให้ค่ะ,WebsiteToSf.Services.FaqService
2013-10-03 12:28:07.8742,Info,New Faq Data,WebsiteToSf.Services.FaqService
2013-10-03 12:28:07.8742,Info,Data : f_cusname => พรหล้า สกาวใจ  f_cusemail => arunthip@toagroup.com f_des => จะทาสีใหม่ หลังคาสีโทนแดง แนะนำด้วยค่ะ,WebsiteToSf.Services.FaqService
2013-10-03 12:28:20.6000,Info,New Faq Data,WebsiteToSf.Services.FaqService
2013-10-03 12:28:20.6000,Info,Data : f_cusname => พรหล้า สกาวใจ  f_cusemail => arunthip@toagroup.com f_des => จะทาสีใหม่ หลังคาสีโทนแดง แนะนำด้วยค่ะ,WebsiteToSf.Services.FaqService
2013-10-03 12:28:46.0564,Info,New Faq Data,WebsiteToSf.Services.FaqService
2013-10-03 12:28:46.0564,Info,Data : f_cusname => พรหล้า สกาวใจ  f_cusemail => arunthip@toagroup.com f_des => จะทาสีใหม่ หลังคาสีโทนแดง แนะนำด้วยค่ะ,WebsiteToSf.Services.FaqService
2013-10-03 12:28:46.7715,Info,New Faq Data,WebsiteToSf.Services.FaqService
2013-10-03 12:28:46.7715,Info,Data : f_cusname => อรุณทิพย์  f_cusemail => arunthip@toagroup.com f_des => อยากให้ออกแบบสีห้องนั่งเล่นให้ค่ะ,WebsiteToSf.Services.FaqService
2013-10-03 12:29:15.4751,Info,New Faq Data,WebsiteToSf.Services.FaqService
2013-10-03 12:29:15.4751,Info,Data : f_cusname => พรหล้า สกาวใจ  f_cusemail => arunthip@toagroup.com f_des => จะทาสีใหม่ หลังคาสีโทนแดง แนะนำด้วยค่ะ,WebsiteToSf.Services.FaqService
2013-10-03 12:29:19.3563,Info,New Faq Data,WebsiteToSf.Services.FaqService
2013-10-03 12:29:19.3563,Info,Data : f_cusname => พรหล้า สกาวใจ  f_cusemail => arunthip@toagroup.com f_des => จะทาสีใหม่ หลังคาสีโทนแดง แนะนำด้วยค่ะ,WebsiteToSf.Services.FaqService
2013-10-03 14:05:43.7642,Info,New Register Ex,WebsiteToSf.Services.RegistaterEx
2013-10-03 14:05:43.7812,Info,dto.f_req5 : 1,WebsiteToSf.Services.RegistaterEx
2013-10-03 14:05:43.7812,Info,"url Data :  http://ideacolor.toagroup.com/ideacolor/img_session/IMG_3878.jpg, http://ideacolor.toagroup.com/ideacolor/img_session/IMG_3879.jpg, http://ideacolor.toagroup.com/ideacolor/img_session/IMG_3880.jpg, http://ideacolor.toagroup.com/ideacolor/img_session/IMG_3883.jpg, http://ideacolor.toagroup.com/ideacolor/img_session/IMG_3888.jpg, http://ideacolor.toagroup.com/ideacolor/img_session/IMG_3892.jpg, ",WebsiteToSf.Services.RegistaterEx
2013-10-03 14:05:49.4475,Error,"Connect to salesforce error : INVALID_LOGIN: Invalid username, password, security token; or user locked out.",WebsiteToSf.Services.RegistaterEx
