"ID","ORDNUMBER","STATUS","ORDNUMBER1","CUSTOMERCODE","ORDDATE","REFERENCE","SALESPERSON","PONUMBER","PODATE","TERM","CREDITTERM","REQDATE","EXPDELIVERYDATE","REFQUOTE","REMARK","SOTYPE","ISDONE","STATUS"
"a0L900000054AbdEAE","SA1310072","Item Created","SA1310072","PN0001       ","2013-10-29T07:00:00Z","SA1310072 / Fujitsu Systems","support10","QT13-0001350","2013-10-28T07:00:00Z","Landed","30 days after delivery","2013-11-29T07:00:00Z","2013-11-22T07:00:00Z","QT13-0001350","MA/ Rental","MA/ Rental","N","Item Created"
"a0L900000054AbeEAE","SA1310073","Item Created","SA1310073","PN0001       ","2013-10-29T07:00:00Z","SA1310073 / Manac Engineering","support10","QT13-0001365","2013-10-28T07:00:00Z","Landed","30 days after delivery","2013-11-29T07:00:00Z","2013-11-22T07:00:00Z","QT13-0001365","MA/ Rental","MA/ Rental","N","Item Created"
"a0L900000054AbfEAE","SA1310074","Item Created","SA1310074","PN0001       ","2013-10-29T07:00:00Z","SA1310074 / Nike (Thailand)","support10","13-N0039-1507","2013-10-28T07:00:00Z","Landed","30 days after delivery","2013-12-13T07:00:00Z","2013-11-29T07:00:00Z","QT13-0001393","No Installation, No Stock","No Installation, No Stock","N","Item Created"
"a0L900000054AbgEAE","SA1310075","Item Created","SA1310075","PN0001       ","2013-10-29T07:00:00Z","SA1310075 / CS Loxinfo (CEC / Main Link Down)","support10","1200028733","2013-10-24T07:00:00Z","Landed","30 days after invoice date","2013-11-13T07:00:00Z","2013-11-13T07:00:00Z","QT13-0001387","Installation, In Stock","Installation, In Stock","N","Item Created"
"a0L900000054AbhEAE","SA1310076","Item Created","SA1310076","PN0001      ","2013-10-29T07:00:00Z","SA1310076 / WCS","support10","PO2013-028","2013-10-28T07:00:00Z","Landed","60 days after delivery","2013-11-29T07:00:00Z","2013-11-22T07:00:00Z","QT13-0001240","MA/ Rental","MA/ Rental","N","Item Created"
"a0L900000054AbiEAE","SA1310077","Item Created","SA1310077","PN0001   ","2013-10-29T07:00:00Z","SA1310077 / PTTEP (Installation Services - PTTEPI YGN & ZPQ)","support10","13-P0319-1444","2013-10-24T07:00:00Z","CIF","30 days after invoice date","2013-11-29T07:00:00Z","2013-11-29T07:00:00Z","QT13-0001397","Installation, In Stock","Installation, In Stock","N","Item Created"
"a0L900000054AbjEAE","SA1310078","Item Created","SA1310078","PN0001       ","2013-10-29T07:00:00Z","SA1310078 / I.D. Supply","support10","PO5610014","2013-10-29T07:00:00Z","Landed","COD","2013-10-29T07:00:00Z","2013-10-29T07:00:00Z","QT13-0001399","No Installation, In Stock","No Installation, In Stock","N","Item Created"
"a0L900000054AbkEAE","SA1310079","Item Created","SA1310079","PN0001       ","2013-10-29T07:00:00Z","SA1310079 / CS Loxinfo (AmataNakorn (Installation charge)","support10","1200028774","2013-10-29T07:00:00Z","Landed","30 days after invoice date","2013-11-13T07:00:00Z","2013-11-29T07:00:00Z","QT13-0001394","Installation, In Stock","Installation, In Stock","N","Item Created"
"a0L900000054AblEAE","SA1310080","Item Created","SA1310080","PN0001       ","2013-10-30T07:00:00Z","SA1310080 / SB Telecom","support10","QT13-0001312","2013-10-24T07:00:00Z","Landed","30 days after delivery","2013-11-29T07:00:00Z","2013-11-22T07:00:00Z","QT13-0001312","MA/ Rental","MA/ Rental","N","Item Created"
"a0L900000054AbmEAE","SA1310081","Item Created","SA1310081","PN0001       ","2013-10-30T07:00:00Z","SA1310081 / Neonworx","support10","PO-56101658","2013-10-29T07:00:00Z","Landed","60 days after delivery","2013-11-29T07:00:00Z","2013-11-29T07:00:00Z","QT13-0001405","No Installation, In Stock","No Installation, In Stock","N","Item Created"
